{
  "images" : [
    {
      "resizing" : {
        "mode" : "9-part",
        "center" : {
          "mode" : "tile",
          "width" : 1,
          "height" : 1
        },
        "cap-insets" : {
          "bottom" : 8,
          "top" : 8,
          "right" : 8,
          "left" : 8
        }
      },
      "idiom" : "universal",
      "filename" : "deviceinfo_button.png",
      "scale" : "1x"
    },
    {
      "resizing" : {
        "mode" : "9-part",
        "center" : {
          "mode" : "tile",
          "width" : 1,
          "height" : 1
        },
        "cap-insets" : {
          "bottom" : 14,
          "top" : 14,
          "right" : 14,
          "left" : 14
        }
      },
      "idiom" : "universal",
      "filename" : "deviceinfo_button@2x.png",
      "scale" : "2x"
    },
    {
      "resizing" : {
        "mode" : "9-part",
        "center" : {
          "mode" : "tile",
          "width" : 1,
          "height" : 1
        },
        "cap-insets" : {
          "bottom" : 22,
          "top" : 22,
          "right" : 22,
          "left" : 22
        }
      },
      "idiom" : "universal",
      "filename" : "deviceinfo_button@3x.png",
      "scale" : "3x"
    }
  ],
  "info" : {
    "version" : 1,
    "author" : "xcode"
  }
}