"Round ID","Manufacturer","Name","Caliber","Diameter (inch)","Muzzle Velocity (fps)","Muzzle Velocity (m/s)","BC G1","BC G7","Weight (grains)","Weight (grams)","Category",""
"","Sako","50gr. SPEEDHEAD","0.222 Rem","0.224","","970","0.181","","50","","SR","smal rifle"
"","Sako","50gr. SPEEdHEAD","0.222 Rem Range","0.224","","970","0.181","","50","","SR",""
"","Sako","50gr. GAMEHEAD","0.222 Rem","0.224","","970","0.181","","50","","SR",""
"","Sako","55gr. GAMEHEAD","0.222 Rem","0.224","","950","0.207","","55","","SR",""
"","Sako","52gr. RACEHEAD","0.222 Rem","0.224","","930","0.221","","52","","SR",""
"","Sako","50gr. ARROWHEAD","0.222 Rem","0.224","","965","0.238","","50","","SR",""
"","Sako","50gr. POWERHEAD II","0.222 Rem","0.224","","950","0.229","","50","","SR",""
"","Sako","50gr. SPEEDHEAD","0.222 Rem Mag","0.224","","975","0.181","","50","","SR",""
"","Sako","50gr. GAMEHEAD","0.222 Rem Mag","0.224","","975","0.181","","50","","SR",""
"","Sako","55gr. GAMEHEAD","0.222 Rem Mag","0.224","","980","0.207","","55","","SR",""
"","Sako","50gr. SPEEDHEAD","0.223 Rem","0.224","","1025","0.181","","50","","SR",""
"","Sako","50gr. SPEEDHEAD","0.223 Rem Range","0.224","","1025","0.181","","50","","SR",""
"","Sako","50gr. GAMEHEAD","0.223 Rem","0.224","","970","0.181","","50","","SR",""
"","Sako","55gr. GAMEHEAD","0.223 Rem","0.224","","965","0.207","","55","","SR",""
"","Sako","55gr. GAMEHEAD","0.223 Rem Range","0.224","","965","0.207","","55","","SR",""
"","Sako","69gr. RACEHEAD","0.223 Rem","0.224","","875","0.3","","69","","SR",""
"","Sako","50gr. ARROWHEAD","0.223 Rem","0.224","","980","0.238","","50","","SR",""
"","Sako","55gr. POWERHEAD","0.223 Rem","0.224","","985","0.272","","55","","SR",""
"","Sako","50gr. SPEEDHEAD","0.22-250 Rem","0.224","","1150","0.181","","50","","LR",""
"","Sako","50gr. GAMEHEAD","0.22-250 Rem","0.224","","1125","0.181","","50","","LR",""
"","Sako","55gr. GAMEHEAD","0.22-250 Rem","0.224","","1100","0.207","","55","","LR",""
"","Sako","50gr. ARROWHEAD","0.22-250 Rem","0.224","","1145","0.238","","50","","LR",""
"","Sako","90gr. GAMEHEAD","0.243 Win","0.243 ","","950","0.349","","90","","LR",""
"","Sako","100gr. GAMEHEAD","0.243 Win","0.243 ","","905","0.367","","100","","LR",""
"","Sako","90gr. SPEEDHEAD","0.243 Win","0.243 ","","875","0.35","","90","","LR",""
"","Sako","100gr. DEERHEAD","0.243 Win","0.243 ","","885","0.257","","100","","LR",""
"","Sako","80gr. POWERHEAD","0.243 Win","0.243 ","","890","0.331","","80","","LR",""
"","Sako","117gr. GAMEHEAD","0.25-06 Rem","0.257","","910","0.381","","117","","LR",""
"","Sako","100gr. SPEEDHEAD","0.260 Rem Range","0.264 ","","915","0.25","","100","","LR",""
"","Sako","123gr. RACEHEAD","0.260 Rem","0.264 ","","865","0.51","","123","","LR",""
"","Sako","156gr. DEERHEAD","0.260 Rem","0.264 ","","765","0.36","","156","","LR",""
"","Sako","100gr. SPEEDHEAD","6.5x55 SE Range","0.264","","875","0.25","","100","","LR",""
"","Sako","140gr. RACEHEAD","6.5x55 SE Range","0.264","","790","0.526","","140","","LR",""
"","Sako","156gr. DEERHEAD","6.5x55 SE Range","0.264","","760","0.377","","156","","LR",""
"","Sako","120gr. POWERHEAD II","6.5x55 SE Range","0.264","","855","0.443","","120","","LR",""
"","Sako","156gr. HAMMERHEAD","0.270 Win","0.277 ","","830","0.321","","156","","LR",""
"","Sako","130gr. POWERHEAD","0.270 Win","0.277 ","","915","0.431","","130","","LR",""
"","Sako","78gr. SPEEDHEAD","7x33 Sako","0.284 ","","750","0.147","","78","","SR",""
"","Sako","78gr. GAMEHEAD","7x33 Sako","0.284 ","","750","0.147","","78","","SR",""
"","Sako","120gr. GAMEHEAD","7x64","0.284 ","","935","0.328","","120","","LR",""
"","Sako","170gr. HAMMERHEAD","7x64","0.284 ","","795","0.407","","170","","LR",""
"","Sako","150gr. ARROWHEAD II","7x64","0.284 ","","860","0.515","","150","","LR",""
"","Sako","150gr. POWERHEAD II","7x64","0.284 ","","860","0.45","","150","","LR",""
"","Sako","170gr. HAMMERHEAD","7x65R","0.284 ","","790","0.407","","170","","LR",""
"","Sako","170gr. HAMMERHEAD","7mm Rem Mag","0.284 ","","860","0.407","","170","","LRM",""
"","Sako","150gr. ARROWHEAD II","7mm Rem Mag","0.284 ","","890","0.515","","150","","LRM",""
"","Sako","150gr. POWERHEAD II","7mm Rem Mag","0.284 ","","890","0.45","","150","","LRM",""
"","Sako","123gr. SPEEDHEAD","0.300 BLK","0.308","","640","0.33","","123","","LR",""
"","Sako","123gr. GAMEHEAD","0.300 BLK","0.308","","635","0.32","","123","","LR",""
"","Sako","220gr. RACEHEAD","0.300 BLK","0.308","","365","0.608","","220","","LR",""
"","Sako","123gr. SPEEDHEAD","7.62x39","0.308","","715","0.342","","123","","LR",""
"","Sako","123gr. GAMEHEAD","7.62x39","0.308","","715","0.342","","123","","LR",""
"","Sako","123gr. SPEEDHEAD","0.308 Win","0.308","","890","0.33","","123","","LR",""
"","Sako","123gr. SPEEDHEAD","0.308 Win Range","0.308","","890","0.33","","123","","LR",""
"","Sako","123gr. GAMEHEAD","0.308 Win","0.308","","920","0.32","","123","","LR",""
"","Sako","168gr. RACEHEAD","0.308 Win","0.308","","810","0.462","","168","","LR",""
"","Sako","102gr. HOLLOWPOINT","0.308 Win Super Range","0.308","","935","0.236","","102","","LR",""
"","Sako","200gr. HAMMERHEAD","0.308 Win","0.308","","710","0.356","","200","","LR",""
"","Sako","150gr. SUPER HAMMERHEAD","0.308 Win","0.308","","855","0.41","","150","","LR",""
"","Sako","180gr. SUPER HAMMERHEAD","0.308 Win","0.308","","760","0.421","","180","","LR",""
"","Sako","180gr. HAMMERHEAD","0.308 Win","0.308","","750","0.387","","180","","LR",""
"","Sako","180gr. HAMMERHEAD","0.308 Win Wild Boar","0.308","","750","0.387","","180","","LR",""
"","Sako","180gr. ARROWHEAD II","0.308 Win","0.308","","780","0.52","","180","","LR",""
"","Sako","168gr. POWERHEAD II","0.308 Win","0.308","","780","0.47","","168","","LR",""
"","Sako","123gr. SPEEDHEAD","7.62x53R Range","0.308","","900","0.33","","123","","LR",""
"","Sako","200gr. HAMMERHEAD","7.62x53R ","0.308","","720","0.356","","200","","LR",""
"","Sako","180gr. SUPER HAMMERHEAD","7.62x53R ","0.308","","770","0.421","","180","","LR",""
"","Sako","180gr. HAMMERHEAD","7.62x53R ","0.308","","765","0.387","","180","","LR",""
"","Sako","123gr. SPEEDHEAD","30-06 Spring","0.308","","890","0.33","","123","","LR",""
"","Sako","123gr. SPEEDHEAD","30-06 Spring Range","0.308","","890","0.33","","123","","LR",""
"","Sako","123gr. GAMEHEAD","30-06 Spring","0.308","","940","0.32","","123","","LR",""
"","Sako","220gr. HAMMERHEAD","30-06 Spring","0.308","","720","0.408","","220","","LR",""
"","Sako","150gr. SUPER HAMMERHEAD","30-06 Spring","0.308","","900","0.41","","150","","LR",""
"","Sako","180gr. SUPER HAMMERHEAD","30-06 Spring","0.308","","820","0.421","","180","","LR",""
"","Sako","180gr. HAMMERHEAD","30-06 Spring","0.308","","820","0.387","","180","","LR",""
"","Sako","180gr. ARROWHEAD II","30-06 Spring","0.308","","815","0.52","","180","","LR",""
"","Sako","180gr. POWERHEAD II","30-06 Spring","0.308","","830","0.484","","180","","LR",""
"","Sako","180gr. SUPER HAMMERHEAD","0.300 WSM","0.308","","885","0.421","","180","","LRM",""
"","Sako","180gr. ARROWHEAD II","0.300 WSM","0.308","","880","0.52","","180","","LRM",""
"","Sako","175gr. RACEHEAD","0.300 Win Mag","0.308 ","","925","0.505","","175","","LRM",""
"","Sako","220gr. HAMMERHEAD","0.300 Win Mag","0.308 ","","805","0.408","","220","","LRM",""
"","Sako","150gr. SUPER HAMMERHEAD","0.300 Win Mag","0.308 ","","1010","0.41","","150","","LRM",""
"","Sako","180gr. SUPER HAMMERHEAD","0.300 Win Mag","0.308 ","","880","0.421","","180","","LRM",""
"","Sako","180gr. ARROWHEAD II","0.300 Win Mag","0.308 ","","885","0.52","","180","","LRM",""
"","Sako","180gr. POWERHEAD II","0.300 Win Mag","0.308 ","","880","0.484","","180","","LRM",""
"","Sako","200gr. HAMMERHEAD","8.2x53R","0.323","","740","0.276","","200","","LR",""
"","Sako","150gr. GAMEHEAD","8x57IS","0.323","","815","0.33","","150","","LR",""
"","Sako","200gr. HAMMERHEAD","8x57IS","0.323","","765","0.276","","200","","LR",""
"","Sako","160gr. POWERHEAD II","8x57IS","0.323","","815","0.4","","160","","LR",""
"","Sako","175gr. GAMEHEAD","8x57IRS","0.323","","775","0.374","","175","","LR",""
"","Sako","200gr. HAMMERHEAD","8x57IRS","0.323","","720","0.276","","200","","LR",""
"","Sako","250gr. HAMMERHEAD","0.338 Win Mag","0.338","","745","0.342","","250","","LRM",""
"","Sako","300gr. RACEHEAD","0.338 Lapua Mag","0.338","","835","0.768","","300","","LRM",""
"","Sako","256gr. GAMEHEAD","9.3x53R Finnish","0.366","","685","0.244","","256","","LR",""
"","Sako","231gr. SPEEDHEAD","9.3x62 Range","0.366","","750","0.38","","231","","LR",""
"","Sako","286gr. HAMMERHEAD","9.3x62","0.366","","710","0.315","","286","","LR",""
"","Sako","250gr. ARROWHEAD","9.3x62","0.366","","745","0.494","","250","","LR",""
"","Sako","250gr. POWERHEAD","9.3x62","0.366","","730","0.361","","250","","LR",""
"","Sako","231gr. SPEEDHEAD","9.3x66 Sako Range","0.366","","760","0.38","","231","","LR",""
"","Sako","286gr. HAMMERHEAD","9.3x66 Sako ","0.366","","765","0.315","","286","","LR",""
"","Sako","286gr. POWERHEAD","9.3x66 Sako ","0.366","","745","0.411","","286","","LR",""
"","Sako","286gr. HAMMERHEAD","9.3x74R","0.366","","685","0.315","","286","","LR",""
"","Sako","250gr. POWERHEAD","9.3x74R","0.366","","720","0.361","","250","","LR",""
"","Sako","270gr. POWERHEAD","0.375 H&H Mag","0.375 ","","810","0.326","","270","","LRM",""
"","Sako","300gr. TWINHEAD II","0.375 H&H Mag","0.375 ","","760","0.325","","300","","LRM",""
"","Sako","270gr. DS SOLID","0.375 H&H Mag","0.375 ","","805","0.284","","270","","LRM",""
"","Sako","400gr. TWINHEAD II","0.416 Rigby","0.416","","735","0.367","","400","","LRM",""
"","Sako","450gr. TWINHEAD II","0.450 Rigby","0.458","","735","0.325","","450","","LRM",""
"","Sako","535gr. TWINHEAD II","0.500 Jeffery","0.51","","720","0.285","","535","","LRM",""
"","","","","","","","","","","","",""
"","Winchester","150gr. Expedition Big Game Long Range","0.27 Win","0.277","2900","","0.625","","150","","LR",""
"","Winchester","190gr. Expedition Big Game Long Range","30-06 Springfield","0.308","2750","","0.64","","190","","LR",""
"","Winchester","190gr. Expedition Big Game Long Range","300 Win Mag","0.308 ","2900","","0.64","","190","","LRM",""
"","Winchester","190gr. Expedition Big Game Long Range","300 WSM","0.308 ","2875","","0.64","","190","","LRM",""
"","Winchester","142gr. Expedition Big Game Long Range","6.5 Creedmoor ","0.264","2700","","0.719","","142","","LR",""
"","Winchester","168gr. Expedition Big Game Long Range","7mm Rem Mag ","0.284","2900","","0.652","","168","","LRM",""
"","Winchester","60gr. Defender","223 Rem","0.224","2750","","0.208","","60","","SR",""
"","Winchester","77gr. Defender","223 Rem","0.224","2500","","0.319","","77","","SR",""
"","Winchester","120gr. Defender","308 Win","0.308","2850","","0.256","","120","","LR",""
"","Winchester","120gr. Defender","7.62x39mm","0.308","2365","","0.248","","120","","LR",""
"","Winchester","35gr. Ballistic Silvertip","22-250 Rem","0.224","4350","","0.201","","35","","LR",""
"","Winchester","35gr. Ballistic Silvertip","223 Rem","0.224","3800","","0.201","","35","","SR",""
"","Winchester","32gr. Ballistic Silvertip ","204 Ruger","0.204","4050","","0.206","","32","","SR",""
"","Winchester","50gr. Ballistic Silvertip","22-250 Rem","0.224","3810","","0.238","","50","","LR",""
"","Winchester","55gr. Ballistic Silvertip","22.25 Rem","0.224","3680","","0.267","","55","","LR",""
"","Winchester","50gr. Ballistic Silvertip","223 Rem","0.224","3410","","0.238","","50","","SR",""
"","Winchester","55gr. Ballistic Silvertip","223 Rem","0.224","3240","","0.267","","55","","SR",""
"","Winchester","55gr. Ballistic Silvertip","223 WSSM","0.224","3850","","0.276","","55","","LR",""
"","Winchester","55gr. Ballistic Silvertip","243 Win","0.243 ","3910","","0.276","","55","","LR",""
"","Winchester","95gr. Ballistic Silvertip","243 Win","0.243 ","3100","","0.4","","95","","LR",""
"","Winchester","55gr. Ballistic Silvertip","243 WSSM","0.243 ","4060","","0.276","","55","","LR",""
"","Winchester"," 95gr. Ballistic Silvertip","243 WSSM","0.243 ","3150","","0.401","","95","","LR",""
"","Winchester","115gr. Ballistic Silvertip","25-06 Rem","0.257","3060","","0.446","","115","","LR",""
"","Winchester","85gr. Ballistic Silvertip","25-06 Rem","0.257","3470","","0.333","","85","","LR",""
"","Winchester","85gr. Ballistic Silvertip","25 WSSM","0.257","3470","","0.333","","85","","LR",""
"","Winchester","115gr. Ballistic Silvertip","25 WSSM","0.257","3060","","0.446","","115","","LR",""
"","Winchester","130gr. Ballistic Silvertip","270 Win","0.277 ","3050","","0.433","","130","","LR",""
"","Winchester","130gr. Ballistic Silvertip","270 WSM","0.277 ","3275","","0.432","","130","","LRM",""
"","Winchester","150gr. Ballistic Silvertip","270 WSM","0.277 ","3120","","0.496","","150","","LRM",""
"","Winchester","140gr. Ballistic Silvertip","280 Rem","0.284","3040","","0.485","","140","","LR",""
"","Winchester","180gr. Ballistic Silvertip","300 Win Mag","0.308 ","2950","","0.507","","180","","LRM",""
"","Winchester","150gr. Ballistic Silvertip","30-06 Springfield","0.308 ","2900","","0.435","","150","","LR",""
"","Winchester","168gr. Ballistic Silvertip","30-06 Springfield","0.308 ","2790","","0.475","","168","","LR",""
"","Winchester","180gr. Ballistic Silvertip","30-06 Springfield","0.308 ","2750","","0.507","","180","","LR",""
"","Winchester","150gr. Ballistic Silvertip","300 WSM","0.308 ","3300","","0.424","","150","","LRM",""
"","Winchester","180gr. Ballistic Silvertip","300 WSM","0.308 ","3010","","0.507","","180","","LRM",""
"","Winchester","150gr. Ballistic Silvertip","30-30 Win","0.308","2390","","0.232","","150","","LR",""
"","Winchester","150gr. Ballistic Silvertip","308 Win","0.308","2810","","0.435","","150","","LR",""
"","Winchester","168gr. Ballistic Silvertip ","308 Win","0.308","2670","","0.474","","168","","LR",""
"","Winchester","180gr. Ballistic Silvertip","325 WSM","0.323","3060","","0.439","","180","","LRM",""
"","Winchester","200gr. Ballistic Silvertip","338 Win","0.338","2950","","0.414","","200","","LRM",""
"","Winchester","150gr. Ballistic Silvertip","7mm Rem Mag ","0.284","3100","","0.493","","150","","LRM",""
"","Winchester","140gr. Ballistic Silvertip ","7mm-08 Rem","0.284","2770","","0.454","","140","","LR",""
"","Winchester","140gr. Ballistic Silvertip","7mm Rem Mag ","0.284","3110","","0.46","","140","","LRM",""
"","Winchester"," 140gr. Ballistic Silvertip","7mm WSM","0.284","3225","","0.46","","140","","LRM",""
"","Winchester","130gr. E-Tip","270 WSM","0.277 ","3275","","0.459","","130","","LRM",""
"","Winchester","130gr. E-Tip","270 Win","0.277 ","3050","","0.459","","130","","LR",""
"","Winchester","180gr. E-Tip","30-06 Springfield","0.308","2750","","0.523","","180","","LR",""
"","Winchester","150gr. E-Tip","30-06 Springfield","0.308","2900","","0.469","","150","","LR",""
"","Winchester","180gr. E-Tip","300 WSM","0.308","3010","","0.523","","180","","LRM",""
"","Winchester","150gr. E-Tip","300 WSM","0.308","3300","","0.469","","150","","LRM",""
"","Winchester","180gr. E-Tip ","300 Win Mag","0.308 ","2950","","0.523","","180","","LRM",""
"","Winchester","150gr. E-Tip","300 Win Mag","0.308 ","3260","","0.469","","150","","LRM",""
"","Winchester","150gr. E-Tip","308 Win","0.308","2810","","0.469","","150","","LR",""
"","Winchester","110gr. Expedition Big Game ","25-06 Rem","0.257","3100","","0.42","","110","","LR",""
"","Winchester","110gr. Expedition Big Game","25 WSSM","0.257","3100","","0.42","","110","","LRM",""
"","Winchester","140gr. Expedition Big Game","270 Win","0.277 ","2950","","0.472","","140","","LR",""
"","Winchester","140gr. Expedition Big Game","270 WSM","0.277 ","3200","","0.472","","140","","LRM",""
"","Winchester","180gr. Expedition Big Game","30-06 Springfield","0.308","2750","","0.509","","180","","LR",""
"","Winchester","180gr. Expedition Big Game","300 Win Mag","0.308","2950","","0.509","","180","","LRM",""
"","Winchester","180gr. Expedition Big Game","300 WSM","0.308","3010","","0.509","","180","","LRM",""
"","Winchester","200gr. Expedition Big Game","325 WSM","0.323","2950","","0.477","","200","","LRM",""
"","Winchester","225gr. Expedition Big Game","338 Win Mag","0.338","2800","","0.548","","225","","LRM",""
"","Winchester","300gr. Expedition Big Game","338 Lapua Mag","0.338","2650","","0.72","","300","","LRM",""
"","Winchester","160gr. Expedition Big Game","7mm Rem Mag ","0.284 ","2950","","0.512","","160","","LRM",""
"","Winchester","140gr. Expedition Big Game","7mm Rem Mag ","0.284 ","3180","","0.46","","140","","LRM",""
"","Winchester","160gr. Expedition Big Game","7mm VSM","0.284 ","3050","","0.512","","160","","LRM",""
"","Winchester","140gr. Expedition Big Game","7mm VSM","0.284 ","3225","","0.46","","140","","LRM",""
"","Winchester","69gr. Match","223 Rem","0.224","3060","","0.297","","69","","SR",""
"","Winchester","168gr. Match","308 Win","0.308","2680","","0.453","","168","","LR",""
"","Winchester","250gr. Match","338 Lapua Mag","0.338","2900","","0.587","","250","","LR",""
"","Winchester","77gr. Match","5.6mm","0.224","2750","","0.34","","77","","LR",""
"","Winchester","140gr. Match","6.5 Creedmoor ","0.264","2710","","0.58","","140","","LR",""
"","Winchester","64gr. Power Max Bonded","223 Rem","0.224","3020","","0.231","","64","","SR",""
"","Winchester","100gr. Power Max Bonded","243 Win","0.243","2960","","0.372","","100","","LR",""
"","Winchester","150gr. Power Max Bonded","270 Win","0.277 ","2850","","0.387","","150","","LR",""
"","Winchester","130gr. Power Max Bonded","270 Win","0.277 ","3060","","0.34","","130","","LR",""
"","Winchester","130gr. Power Max Bonded","270 WSM","0.277 ","3275","","0.34","","130","","LRM",""
"","Winchester","150gr. Power Max Bonded","30-06 Springfield","0.308","2920","","0.325","","150","","LR",""
"","Winchester","180gr. Power Max Bonded","30-06 Springfield","0.308","2700","","0.394","","180","","LR",""
"","Winchester","150gr. Power Max Bonded","300 WSM ","0.308","3270","","0.325","","150","","LRM",""
"","Winchester","180gr. Power Max Bonded","300 WSM","0.308","2970","","0.394","","180","","LRM",""
"","Winchester","170gr. Power Max Bonded","30-30 Win","0.308","2200","","0.247","","170","","LR",""
"","Winchester","150gr. Power Max Bonded","30-30 Win","0.308","2390","","0.224","","150","","LR",""
"","Winchester","150gr. Power Max Bonded","308 Win","0.308","2080","","0.325","","150","","LR",""
"","Winchester","150gr. Power Max Bonded","300 Win Mag","0.308 ","3290","","0.325","","150","","LRM",""
"","Winchester","180gr. Power Max Bonded","300 Win Mag","0.308 ","2960","","0.394","","180","","LRM",""
"","Winchester","220gr. Power Max Bonded","325 WSM","0.323","2840","","0.403","","220","","LRM",""
"","Winchester","200gr. Power Max Bonded","338 Win Mag","0.338","2960","","0.323","","200","","LRM",""
"","Winchester","150gr. Power Max Bonded","7mm Rem Mag ","0.284 ","3090","","0.393","","150","","LRM",""
"","Winchester","150gr. Power Max Bonded","7mm WSM","0.284 ","3200","","0.393","","150","","LRM",""
"","Winchester","64gr. Razor Boar XT","223 Rem","0.224","3020","","0.247","","64","","SR",""
"","Winchester","150gr. Razor Boar XT","308 Win","0.308","2810","","0.344","","150","","LR",""
"","Winchester","300gr. Safari Nosler Partition","375 H&H","0.375 ","2530","","0.398","","300","","LRM",""
"","Winchester","400gr. Safari Nosler Partition","416 Rigby","0.416","2370","","0.39","","400","","LRM",""
"","Winchester","400gr. Safari Nosler Partition","416 Rem Mag","0.416","2400","","0.39","","400","","LRM",""
"","Winchester","500gr. Safari Nosler Partition","458 Win Mag","0.458","2010","","0.33","","500","","LRM",""
"","Winchester","300gr. Safari Nosler Solid","375 H&H","0.375","2530","","0.198","","300","","LRM",""
"","Winchester","400gr. Safari Nosler Solid","416 Rigby","0.416","2370","","0.263","","400","","LRM",""
"","Winchester","400gr. Safari Nosler Solid","416 Rem Mag","0.416","2400","","0.263","","400","","LRM",""
"","Winchester","500gr. Safari Nosler Solid","458 Win Mag","0.458","2010","","0.243","","500","","LRM",""
"","Winchester","64gr. Deer Season XP","223 Rem","0.224","3020","","0.282","","64","","SR",""
"","Winchester","95gr. Deer Season XP","243 Win","0.243 ","3100","","0.363","","95","","LR",""
"","Winchester","130gr. Deer Season XP","270 Win","0.277 ","3060","","0.45","","130","","LR",""
"","Winchester","130gr. Deer Season XP","270 WSM","0.277 ","3275","","0.45","","130","","LRM",""
"","Winchester","150gr. Deer Season XP","30-06 Springfield","0.308","2920","","0.392","","150","","LR",""
"","Winchester","150gr. Deer Season XP","300 Blackout","0.308","1900","","0.392","","150","","LR",""
"","Winchester","150gr. Deer Season XP","300 Win Mag","0.308 ","3260","","0.392","","150","","LRM",""
"","Winchester","150gr. Deer Season XP","300 WSM","0.308 ","3260","","0.392","","150","","LRM",""
"","Winchester","150gr. Deer Season XP","30-30 Win","0.308","2390","","0.215","","150","","LR ",""
"","Winchester","150gr. Deer Season XP","308 WIn","0.308","2820","","0.392","","150","","LR ",""
"","Winchester","125gr. Deer Season XP","6.5 Creedmoor ","0.264","2850","","0.54","","125","","LR ",""
"","Winchester","140gr. Deer Season XP","7mm-08 Rem","0.284","2800","","0.484","","140","","LR ",""
"","Winchester","140gr. Deer Season XP","7mm Rem Mag ","0.284 ","3100","","0.438","","140","","LRM",""
"","Winchester","64gr. Power Core","223 Rem","0.224","3020","","0.247","","64","","SR",""
"","Winchester","90gr. Power Core","243 Win","0.243 ","3100","","0.354","","90","","LR",""
"","Winchester","130gr. Power Core","270 Win","0.277 ","3060","","0.36","","130","","LR",""
"","Winchester","130gr. Power Core","270 WSM","0.277 ","3275","","0.36","","130","","LRM",""
"","Winchester","150gr. Power Core","30-06 Springfield","0.308","2920","","0.344","","150","","LR",""
"","Winchester","150gr. Power Core","300 Win Mag","0.308 ","3260","","0.344","","150","","LRM",""
"","Winchester","150gr. Power Core","300 WSM ","0.308 ","3270","","0.344","","150","","LRM",""
"","Winchester","150gr. Power Core","30-30 Win","0.308","2390","","0.237","","150","","LR",""
"","Winchester","150gr. Power Core","308 Win","0.308","2820","","0.344","","150","","LR",""
"","Winchester","140gr. Power Core","7mm-08 Rem","0.284","2800","","0.416","","140","","LR",""
"","Winchester","140gr. Power Core","7mm Rem Mag ","0.284 ","3100","","0.416","","140","","LRM",""
"","Winchester","140gr. Power Core","7mm WSM","0.284 ","3225","","0.416","","140","","LRM",""
"","Winchester","34gr. Super-X","204 Ruger","0.204","4025","","0.167","","34","","SR",""
"","Winchester","46gr. Super-X","218 Bee","0.224","2760","","0.13","","46","","SR",""
"","Winchester","46gr. Super-X","22 Hornet ","0.223","2690","","0.13","","46","","SR",""
"","Winchester","150gr. Super-X","30-30 Win","0.308","2390","","0.218","","150","","LR",""
"","Winchester","110gr. Super-X","30 Carbine","0.308","1990","","0.166","","110","","LR",""
"","Winchester","240gr. Super-X","44 Rem Mag","0.429","1760","","0.158","","240","","LRM",""
"","Winchester","300gr. Super-X","45-70 Gov","0.45","1880","","0.283","","300","","LR",""
"","Winchester","100gr. Super-X","32-30 Win","0.312","1210","","0.166","","100","","SR",""
"","Winchester","50gr. Super-X","220 Swift","0.224","3870","","0.2","","50","","LR",""
"","Winchester","55gr. Super-X","22-250 Rem","0.224","3680","","0.197","","55","","LR",""
"","Winchester","50gr. Super-X","222 Rem","0.224","3140","","0.175","","50","","SR",""
"","Winchester","55gr. Super-X","223 Rem ","0.224","3240","","0.197","","55","","SR",""
"","Winchester","55gr. Super-X","223 WSSM","0.224","3850","","0.233","","55","","LR",""
"","Winchester","55gr. Super-X","225 Win","0.224","3570","","0.208","","55","","LR",""
"","Winchester","80gr. Super-X","243 Win","0.243 ","3350","","0.255","","80","","LR",""
"","Winchester","125gr. Super-X","30-06 Springfield","0.308","3140","","0.268","","125","","LR",""
"","Winchester","165gr. Super-X","30-06 Springfield","0.308","2800","","0.341","","165","","LR",""
"","Winchester","90gr. Super-X","25-06 Rem","0.257","3440","","0.259","","90","","LR",""
"","Winchester","120gr. Super-X","25-06 Rem","0.257","2990","","0.344","","120","","LR",""
"","Winchester","120gr. Super-X","25 WSSM","0.257","2990","","0.344","","120","","LR",""
"","Winchester","64gr. Super-X","22-250 Rem","0.224","3500","","0.251","","64","","LR",""
"","Winchester","64gr. Super-X","223 Rem","0.224","3020","","0.257","","64","","SR",""
"","Winchester","64gr. Super-X","223 WSSM","0.224","3600","","0.233","","64","","LR",""
"","Winchester","100gr. Super-X","243 Win","0.243 ","2960","","0.356","","100","","LR",""
"","Winchester","100gr. Super-X","243 WSSM","0.243 ","3110","","0.356","","100","","LR",""
"","Winchester","117gr. Super-X","257 Roberts +P","0.257","2780","","0.24","","117","","LR",""
"","Winchester","140gr. Super-X","264 Win Mag","0.264","3030","","0.384","","140","","LRM",""
"","Winchester","150gr. Super-X","270 Win","0.277 ","2850","","0.344","","150","","LR",""
"","Winchester","130gr. Super-X","270 Win","0.277 ","3060","","0.372","","130","","LR",""
"","Winchester","150gr. Super-X","270 WSM","0.277 ","3150","","0.344","","150","","LRM",""
"","Winchester","150gr. Super-X","284 Win","0.284","2860","","0.364","","150","","LR",""
"","Winchester","150gr. Super-X","300 Savage","0.308","2630","","0.294","","150","","LR",""
"","Winchester","150gr. Super-X","30-06 Springfield","0.308","2920","","0.294","","150","","LR",""
"","Winchester","180gr. Super-X","30-06 Springfield","0.308","2700","","0.381","","180","","LR",""
"","Winchester","180gr. Super-X","300 WSM","0.308","2970","","0.438","","180","","LRM",""
"","Winchester","150gr. Super-X","300 WSM","0.308","3270","","0.294","","150","","LRM",""
"","Winchester","170gr. Super-X","30-30 Win","0.308","2200","","0.241","","170","","LR",""
"","Winchester","150gr. Super-X","30-30 Win","0.308","2390","","0.218","","150","","LR",""
"","Winchester","180gr. Super-X","303 Brit","0.311","2460","","0.369","","180","","LR",""
"","Winchester","180gr. Super-X","30-40 Krag","0.308","2430","","0.394","","180","","LR",""
"","Winchester","150gr. Super-X","308 Win","0.308","2820","","0.294","","150","","LR",""
"","Winchester","180gr. Super-X","308 Win ","0.308","2620","","0.382","","180","","LR",""
"","Winchester","180gr. Super-X","300 Win Mag","0.308 ","3290","","0.294","","180","","LRM",""
"","Winchester","220gr. Super-X","325 WSM","0.323","2840","","0.388","","220","","LRM",""
"","Winchester","200gr. Super-X","338 Win Mag","0.338","2960","","0.308","","200","","LRM",""
"","Winchester","200gr. Super-X","356 Win","0.357","2460","","0.238","","200","","LR",""
"","Winchester","200gr. Super-X","35 Rem","0.357","2020","","0.193","","200","","LR",""
"","Winchester","200gr. Super-X","375 Win","0.375","2200","","0.214","","200","","LR",""
"","Winchester","200gr. Super-X","44-40 Win","0.427","1190","","0.161","","200","","LR",""
"","Winchester","140gr. Super-X","6.5x5 Swed","0.256","2550","","0.45","","140","","LR",""
"","Winchester","100gr. Super-X","6mm Rem","0.243","3100","","0.356","","100","","LR",""
"","Winchester","140gr. Super-X","7mm-08 Rem","0.284","2800","","0.36","","140","","LR",""
"","Winchester","123gr. Super-X","7.62x39mm Russian","0.311","2365","","0.265","","123","","LR",""
"","Winchester","145gr. Super-X","7mm Mauser (7x57)","0.284 ","2660","","0.355","","145","","LR",""
"","Winchester","150gr. Super-X","7mm Rem","0.284 ","3090","","0.373","","150","","LR",""
"","Winchester","175gr. Super-X","7mm Rem","0.284 ","2860","","0.426","","175","","LR",""
"","Winchester","150gr. Super-X","7mm WSM","0.284 ","3200","","0.346","","150","","LRM",""
"","Winchester","170gr. Super-X","8mm Mauser (8x57)","0.323","2360","","0.205","","170","","LR",""
"","Winchester","210gr. Super-X","44 Rem","0.429","1580","","0.132","","210","","LR",""
"","Winchester","45gr. Super-X","22 Hornet ","0.223","2690","","0.13","","45","","SR",""
"","Winchester","86gr. Super-X","25-20 Win","0.258","1460","","0.191","","86","","LR",""
"","Winchester","117gr. Super-X","25-35 Win","0.258","2230","","0.213","","117","","LR",""
"","Winchester","180gr. Super-X","38-40 Win","0.401","1160","","0.172","","180","","LR",""
"","Winchester","255gr. Super-X","38-55 Win","0.401","1320","","0.354","","255","","LR",""
"","Winchester","510gr. Super-X","458 Win","0.458","2040","","0.274","","510","","LR",""
"","Winchester","200gr. Super-X","300 Blackout","0.308","1060","","0.306","","200","","LR",""
"","Winchester","185gr. Super-X","308 Win","0.308","1060","","0.283","","185","","LR",""
"","Winchester","20gr. Varmint-X","17 Hornet","0.172","3650","","0.185","","20","","SR",""
"","Winchester","32gr. Varmint-X","204 Ruger","0.204","","","0.21","","32","","SR",""
"","Winchester","55gr.Varmint-X","22-250 Rem","0.224","","","0.255","","55","","LR",""
"","Winchester","55gr. Varmint-X","223 Rem","0.224","","","0.255","","55","","SR",""
"","Winchester","40gr. Varmint-X","223 Rem","0.224","","","0.2","","40","","SR",""
"","Winchester","35gr. Varmint-X","22 Hornet ","0.223","3100","","0.109","","35","","SR",""
"","Winchester","58gr. Varmint-X","243 Win","0.243 ","","","0.25","","58","","LR",""
"","Winchester","38gr. Varmint-X Lead Free","22-250 Rem","0.224","4090","","0.156","","38","","LR",""
"","Winchester","38gr. Varmint-X Lead Free","223 Rem","0.224","3800","","0.156","","38","","SR",""
"","Winchester","55gr. Varmint-X Lead Free","243 Win","0.243 ","3910","","0.195","","55","","LR",""
"","Winchester","55gr. Win3Gun Centerfire Rifle","5.56mm","0.224 ","3270","","0.267","","55","","SR",""
"","Winchester","110gr. Full Metal Jacket","30 Carbine","0.308","1990","","0.18","","110","","LR",""
"","Winchester","55gr. Full Metal Jacket","223 Rem","0.224","3240","","0.255","","55","","SR",""
"","Winchester","147gr. Full Metal Jacket","30-06 Springfield","0.308","3020","","0.421","","147","","LR",""
"","Winchester","147gr. Full Metal Jacket","308 Win","0.308","2800","","0.415","","147","","LR",""
"","Winchester","55gr. Full Metal Jacket","5.56 NATO","","3270","","0.267","","55","","LR",""
"","Winchester","50gr. Full Metal Jacket","556","","","","","","50","","LR",""
"","Winchester","45gr. Jacketed Hollow Point","22-250 Rem","0.224","4000","","0.175","","45","","LR",""
"","Winchester","45gr. Jacketed Hollow Point","223 Rem","0.224","3600","","0.185","","45","","SR",""
"","Winchester","180gr. Full Metal Jacket Metric Calibers","7.62 x 54R","","2580","","0.486","","180","","LR",""
"","Winchester","180gr. Soft Point Metric Calibers","7.62 x 54R","","2625","","0.267","","180","","LR",""
"","","","","","","","","","","","",""
"","RWS","SPEED TIP PRO 16,2g","338 Lap Mag","0.338","","885","0.566","","","16.2","LRM",""
"","RWS","SPEED TIP PRO 18,5g","10.3x68 Mag","","","800","0.379","","","18.5","LRM",""
"","RWS","SPEED TIP PRO 10,7g","308 Win","0.308","","820","0.422","","","10.7","LR",""
"","RWS","SPEED TIP PRO 10,7g","300 Win Mag","0.308 ","","955","0.422","","","10.7","LRM",""
"","RWS","SPEED TIP PRO 10,7g","0.30-06","","","867","0.422","","","10.7","LR",""
"","RWS","HIT 16,2g","9.3x62","0.365","","749","0.409","","","16.2","LR",""
"","RWS","HIT 8,4g","270 WSM","","","963","0.382","","","8.4","LRM",""
"","RWS","HIT 10,7g","300 Win Mag","0.308 ","","950","0.42","","","10.7","LRM",""
"","RWS","HIT 10,7g","308 Win","0.308","","821","0.42","","","10.7","LR",""
"","RWS","HIT 10,7g","42916","","","851","0.42","","","10.7","LR",""
"","RWS","HIT 8,4g","270 Win","0.277 ","","921","0.393","","","8.4","LR",""
"","RWS","HIT 10,4g","8x57 JS","0.323","","837","0.338","","","10.4","LR",""
"","RWS","HIT 10,4g","8x68 S","","","962","0.338","","","10.4","LR",""
"","RWS","HIT 16,2g","9.3x74 R","","","710","0.418","","","16.2","LR",""
"","RWS","HIT 10,4g","8x57 JRS","","","808","0.338","","","10.4","LR",""
"","RWS","HIT 9,1g","7x65 R","","","889","0.454","","","9.1","LR",""
"","RWS","HIT 9,1g","7x64","0.284 ","","910","0.454","","","9.1","LR",""
"","RWS"," HIT 9,1g","7mm Rem Mag","0.284 ","","940","0.454","","","9.1","LRM",""
"","RWS","Evolution Green 6,0g","6.5x68","","","1126","0.309","","","6","LR",""
"","RWS","Evolution Green 6,0g","6.5x57","","","987","0.309","","","6","LR",""
"","RWS","Evolution Green 6,9g","6.5x57","","","850","0.36","","","6.9","LR",""
"","RWS","Evolution Green 6,0g","6.5x55","","","977","0.309","","","6","LR",""
"","RWS","Evolution Green 8,8g 2401137","9.3x64","","","970","0.312","","","8.8","LR",""
"","RWS","Evolution Green 8,2g","7x64","0.284 ","","955","0.345","","","8.2","LR",""
"","RWS","Evolution Green 8,2g","7x65 R","","","930","0.345","","","8.2","LR",""
"","RWS","Evolution Green 8,8g","308 Win","0.308","","870","0.34","","","8.8","LR",""
"","RWS","Evolution Green 8,8g","0.30-06","","","920","0.34","","","8.8","LR",""
"","RWS","Evolution Green 8,8g","300 Win Mag","0.308 ","","1015","0.34","","","8.8","LRM",""
"","RWS","Evolution Green 9,0g","8x57 JRS","0.323","","865","0.299","","","9","LR",""
"","RWS","Evolution Green 9,0g","8x57 JS","0.323","","950","0.299","","","9","LR",""
"","RWS","Evolution Green 11,9g","9.3x62","0.365","","880","0.312","","","11.9","LR",""
"","RWS","Evolution Green 11,9g","9.3x74 R","0.365","","835","0.312","","","11.9","LR",""
"","RWS","Blaser Evolution Green 8,8g","30 R","","","930","0.34","","","8.8","LR",""
"","RWS","Evolution Green 8,2g","7x57 R","","","820","0.345","","","8.2","LR",""
"","RWS","Evolution Green 8,2g","7mm Rem Mag","0.284 ","","960","0.345","","","8.2","LRM",""
"","RWS","Evolution Green 9,0g","8x68 S","","","996","0.299","","","9","LR",""
"","RWS","Evolution Green 6,2g","270 Win","0.277 ","","1063","0.292","","","6.2","LR",""
"","RWS","Evolution Green 13,5g","10.3x68 Mag","","","900","0.271","","","13.5","LRM",""
"","RWS","EVO 10,3g","7x64","0.284 ","","880","0.399","","","10.3","LR",""
"","RWS","EVO 10,3g","7x65 R","","","865","0.399","","","10.3","LR",""
"","RWS","EVO 11,9G","300 Win Mag","0.308 ","","930","0.366","","","11.9","LRM",""
"","RWS","EVO 11,9G","308 Win","0.308","","775","0.366","","","11.9","LR",""
"","RWS","EVO 11,9G","0.30-06","","","835","0.366","","","11.9","LR",""
"","RWS","EVO 18,8g","9.3x62","0.365","","730","0.4","","","18.8","LR",""
"","RWS","EVO 18,8g","9.3x74 R","0.365","","700","0.4","","","18.8","LR",""
"","RWS","EVO 11,9G","300 WSM","","","930","0.366","","","11.9","LRM",""
"","RWS","EVO 10,0g","270 WSM","","","915","0.335","","","10","LRM",""
"","RWS","EVO 10,0g","270 Win","0.277 ","","840","0.335","","","10","LR",""
"","RWS","EVO 11,9G","30 R","","","850","0.366","","","11.9","LR",""
"","RWS","EVO 13,0g","8x57 JRS","0.323","","720","0.35","","","13","LR",""
"","RWS","EVO 13,0g","8x57 JS","0.323","","730","0.35","","","13","LR",""
"","RWS","EVO 13,0g","8x68 S","","","915","0.35","","","13","LR",""
"","RWS","EVO 10,3g","7mm Rem Mag","0.284 ","","895","0.399","","","10.3","LRM",""
"","RWS","EVO 10,1g","6.5x55","","","780","0.379","","","10.1","LR",""
"","RWS","HMK 8,4g","270 Win","0.277 ","","955","0.272","","","8.4","LR",""
"","RWS","HMK 11,2g","7x57 R","","","750","0.383","","","11.2","LR",""
"","RWS","HMK 11,2g","7x64","0.284 ","","850","0.383","","","11.2","LR",""
"","RWS","HMK 11,2g","7x65 R","","","830","0.383","","","11.2","LR",""
"","RWS","HMK 11,7g","308 Win","0.308","","780","0.356","","","11.7","LR",""
"","RWS","HMK 11,7g","0.30-06","","","840","0.356","","","11.7","LR",""
"","RWS","HMK 12,1g","8x57 JS","0.323","","800","0.326","","","12.1","LR",""
"","RWS","HMK 12,1g","8x57 JRS","0.323","","770","0.326","","","12.1","LR",""
"","RWS","HMK 12,1g","8x68 S","","","970","0.326","","","12.1","LR",""
"","RWS","UNI Classic 11,7g","300 Win Mag","0.308 ","","940","0.35","","","11.7","LRM",""
"","RWS","Blaser UNI Classic 11,7g","30 R","","","860","0.35","","","11.7","LR",""
"","RWS","UNI Classic 19,5g","375 H&H","0.375 ","","760","0.334","","","19.5","LR",""
"","RWS","UNI Classic 11,7g","308","0.308","","780","0.35","","","11.7","LR",""
"","RWS","UNI Classic 11,7g",".30-06","0.308","","840","0.35","","","11.7","LR",""
"","RWS","UNI Classic 19,0g","9.3x62","0.365","","740","0.465","","","19","LR",""
"","RWS","UNI Classic 19,0g","9.3x64","0.365","","785","0.465","","","19","LR",""
"","RWS","UNI Classic 19,0g","9.3x74 R","0.365","","695","0.465","","","19","LR",""
"","RWS","UNI Classic 11,7g","0.30-06","0.308","","840","0.35","","","11.7","LR",""
"","RWS","Classic ID 9,7g","308 Win","0.308","","870","0.303","","","9.7","LR",""
"","RWS","ID Classic 9,7g","0.30-06","0.308","","910","0.303","","","9.7","LR",""
"","RWS","ID Classic 11,5g","7mm Rem Mag","0.284 ","","890","0.356","","","11.5","LRM",""
"","RWS","ID Classic 10,5g","7x57","","","800","0.325","","","10.5","LR",""
"","RWS","ID Classic 11,5g","7x57 R","","","750","0.356","","","11.5","LR",""
"","RWS","ID Classic 10,5g","7x64","0.284 ","","880","0.325","","","10.5","LR",""
"","RWS","ID Classic 10,5g","7x65 R","","","870","0.325","","","10.5","LR",""
"","RWS","ID Classic 12,8g","8x57 JS","","","800","0.36","","","12.8","LR",""
"","RWS","ID Classic 12,8g","8x58 JRS","","","750","0.36","","","12.8","LR",""
"","RWS","DK 9,1g","6.5x55","","","870","0.305","","","9.1","LR",""
"","RWS","DK 9,1g","6.5x57 R","","","775","0.305","","","9.1","LR",""
"","RWS","DK 10,7g",".30-06","","","870","0.293","","","10.7","LR",""
"","RWS","DK 10,7g","300 Win Mag","0.308 ","","970","0.293","","","10.7","LRM",""
"","RWS","Blaser DK 10,7g","30 R","","","900","0.293","","","10.7","LR",""
"","RWS","DK 10,7g","308 Win","0.308","","800","0.293","","","10.7","LR",""
"","RWS","DK 14,6g","9.3x62","0.365","","800","0.266","","","14.6","LR",""
"","RWS","DK 10,0g","7x64","0.284 ","","885","0.338","","","10","LR",""
"","RWS","DK 9,1g","6.5x57","","","810","0.305","","","9.1","LR",""
"","RWS","KS 4,8g","5.6x57","","","970","0.26","","","4.8","LR",""
"","RWS","KS 6,2g","243 Win","0.243 ","","930","0.294","","","6.2","LR",""
"","RWS","RWS KS 8,2g","6.5x65","","","900","0.361","","","8.2","LR",""
"","RWS","RWS KS 8,2g","6.5x65","","","870","0.361","","","8.2","LR",""
"","RWS","KS 8,2g","6.5x55","0.264","","885","0.361","","","8.2","LR",""
"","RWS","KS 8,2g","6.5x57","","","870","0.361","","","8.2","LR",""
"","RWS","KS 8,2g","6.5x57","","","835","0.361","","","8.2","LR",""
"","RWS","KS 8,2g","6.5x68","","","960","0.361","","","8.2","LR",""
"","RWS","KS 9,7g","270 Win","0.277 ","","895","0.345","","","9.7","LR",""
"","RWS","KS 8,0g","7x57","0.284 ","","900","0.29","","","8","LR",""
"","RWS","KS 8,0g","7x57","0.284 ","","890","0.29","","","8","LR",""
"","RWS","KS 8,0g","7x64","0.284 ","","970","0.29","","","8","LR",""
"","RWS","KS 8,0g","7x65 R","0.284 ","","930","0.29","","","8","LR",""
"","RWS","KS 10,7g","300 Win Mag","0.308 ","","970","0.329","","","10.7","LRM",""
"","RWS","KS 9,7g","308 Win","0.308","","870","0.298","","","9.7","LR",""
"","RWS","KS 9,7g",".30-06","0.308","","910","0.298","","","9.7","LR",""
"","RWS","Blaser KS 9,7g","30 R","0.308","","920","0.298","","","9.7","LR",""
"","RWS","KS 14,5g","8x68 S","0.323","","870","0.343","","","14.5","LR",""
"","RWS","KS 14,5g","8x68 S","0.323","","870","0.343","","","14.5","LR",""
"","RWS","KS 16,0g","9.3x62","0.365","","800","0.32","","","16","LR",""
"","RWS","KS 16,0g","9.3x74 R","0.365","","750","0.32","","","16","LR",""
"","RWS","KS 8,0g","7x64","0.284 ","","970","0.29","","","8","LR",""
"","RWS","KS 8,0g","7x65 R","0.285 ","","930","0.29","","","8","LR",""
"","RWS","KS 10,5g","7x65 R","0.285 ","","860","0.381","","","10.5","LR",""
"","RWS","KS 8,0g","7x57 R","0.285 ","","890","0.29","","","8","LR",""
"","RWS","KS 10,5g","7x57 R","0.285 ","","780","0.381","","","10.5","LR",""
"","RWS","KS 9,7g","270 WSM","","","955"," 0.345","","","9.7","LRM",""
"","RWS","TMR 11,2g","7x64","0.284 ","","800","0.301","","","11.2","LR",""
"","RWS","TMR 11,2g","7x65 R","0.284 ","","770","0.301","","","11.2","LR",""
"","RWS","TMR 18,5g","9.3x74 R","0.365","","695","0.309","","","18.5","LR",""
"","RWS","TMS 3,0g","22 Hornet","0.223","","740","0.152","","","3","SR",""
"","RWS","TMS 3,24g","222 Rem","0.224","","970","0.186","","","3.24","SR",""
"","RWS","TMS 3,6g","5.6x50 R","0.224","","1000","0.207","","","3.6","SR",""
"","RWS","TM 4,1g","5.6x50 R","0.224","","900","0.24","","","4.1","SR",""
"","RWS","TMS 3,24g","5.6x50 R","0.224","","1070","0.186","","","3.24","SR",""
"","RWS","TMS 3,6g","223 Rem","0.224","","990","0.207","","","3.6","SR",""
"","RWS","TM 4,1g","5.6x50 Mag","0.224","","920","0.24","","","4.1","LRM",""
"","RWS","TMS 3,6g","5.6x50 R Mag","0.224","","1000","0.207","","","3.6","LRM",""
"","RWS","TM 4,1g","5.6x50 R Mag","0.224","","900","0.24","","","4.1","LRM",""
"","RWS","TMS 3,24g","5.6x50 R Mag","0.224","","1070","0.186","","","3.24","LRM",""
"","RWS","TMS 4,6g","5.6x52 R","0.224","","870","0.248","","","4.6","LR",""
"","RWS","TMS 6,5g","243 Win","0.243","","910","0.371","","","6.5","LR",""
"","RWS","TMS 8,4g","270 Win","0.277 ","","965","0.325","","","8.4","LR",""
"","RWS","TMS 9,4g","7mm Rem Mag","0.284 ","","940","0.346","","","9.4","LRM",""
"","RWS","VMS 3,0G","22 Hornet","0.223","","740","0.152","","","3","SR",""
"","RWS","Hunting Match MJ 3,4g","222 Rem","0.224","","985","0.183","","","3.4","SR",""
"","RWS","Hunting Match MJ 3,0g","22 Hornet","0.223","","740","0.14","","","3","SR",""
"","RWS","Special Edition with HMK 11,2g","7x64","0.284 ","","850","0.383","","","11.2","LR",""
"","RWS","Special Edition with HMK 11,2g","7x65 R","","","830","0.383","","","11.2","LR",""
"","RWS","Special Edition with HMK 11,7g","308 Win","0.308","","780","0.356","","","11.7","LR",""
"","RWS","Special Edition with HMK 11,7g",".30-06","","","840","0.356","","","11.7","LR",""
"","RWS","Special Edition with HMK 11,7g","300 Win Mag","0.308 ","","955","0.35","","","11.7","LRM",""
"","RWS","Special Edition with HMK 12,1g","8x57 JS","0.323","","800","0.326","","","12.1","LR",""
"","RWS","Special Edition with HMK 12,1g","8x57 JRS","0.323","","770","0.326","","","12.1","LR",""
"","RWS","Special Edition with HMK 16,7g","9.3x74 R","0.365","","730","0.372","","","16.7","LR",""
"","","","","","","","","","","","",""
"","Remington","Core-Lokt* Ultra Bonded*","223 Remington","0.224","3100","","0.234","","62","","SR",""
"","Remington","Core-lokt* Pointed Soft Point","6mm Remington","0.243","3100","","0.356","","100","","LR",""
"","Remington","Core-Lokt* Ultra Bonded","243 Win","0.243 ","2960","","0.373","","100","","LR",""
"","Remington","Core-Lokt* Pointed Soft Point","243 Win","0.243 ","2960","","0.356","","100","","LR",""
"","Remington","Core-Lokt* Pointed Soft Point","25-06 Remington","0.257 ","3230","","0.292","","100","","LR",""
"","Remington","Core-Lokt* Ultra Bonded*","25-06 Remington","0.257 ","3000","","0.38","","115","","LR",""
"","Remington","Core-Lokt* Pointed Soft Point","25-06 Remington","0.257 ","2990","","0.362","","120","","LR",""
"","Remington","Core-Lokt* Soft Point","257 Roberts","0.257 ","2650","","0.24","","117","","LR",""
"","Remington","Core-Lokt* Pointed  Soft Point","6.5x55 Swedish","0.256 ","2550","","0.435","","140","","LR",""
"","Remington","Core-Lokt* Pointed Soft Point","260 Remington","0.264 ","2750","","0.435","","140","","LR",""
"","Remington","Core-Lokt* Ultra Bonded*","260 Remington","0.264 ","2750","","0.457","","140","","LR",""
"","Remington","Core-Lokt* Pointed Soft Point","260 Remington","0.264 ","2360","","0.435","","140","","LR",""
"","Remington","Core-Lokt* Pointed Soft Point","264 Win Mag","0.264 ","3030","","0.384","","140","","LRM",""
"","Remington","SPC Core-Lokt* Ultra Bonded*","6.8mm Remington SPC","0.277 ","2625","","0.295","","115","","LR",""
"","Remington","Core-Lokt* Pointed Soft Point","270 Win","0.277 ","2710","","0.295","","115","","LR",""
"","Remington","Core-Lokt* Pointed Soft Point","270 Win","0.277 ","3060","","0.336","","130","","LR",""
"","Remington","Core-Lokt* Ultra Bonded*","270 WIn","0.277 ","2925","","0.36","","140","","LR",""
"","Remington","Core-Lokt* Soft Point","270 Win","0.277 ","2850","","0.261","","150","","LR",""
"","Remington","Core-Lokt* Soft Point","270 WSM","0.277 ","3285","","0.336","","130","","LR",""
"","Remington","Core-Lokt* Pointed Soft Point","280 Remington ","0.284","3000","","0.39","","140","","LR",""
"","Remington","Core-Lokt* Pointed Soft Point","280 Remington ","0.284","2890","","0.346","","150","","LR",""
"","Remington","Core-Lokt* Soft Point","280 Remington ","0.284","2820","","0.29","","165","","LR",""
"","Remington","Core-Lokt* Pointed Soft Point","7mm-08 Remington","0.284","2860","","0.39","","140","","LR",""
"","Remington","Core-Lokt* Pointed Soft Point","7mm-08 Remington","0.284","2360","","0.39","","140","","LR",""
"","Remington","Core-Lokt* Ultra Bonded*","7mm Remington Mag","0.284 ","3175","","0.409","","140","","LRM",""
"","Remington","Core-Lokt* Pointed Soft Point","7mm Remington Mag","0.284 ","3175","","0.39","","140","","LRM",""
"","Remington","Core-Lokt* Pointed Soft Point","7mm Remington Mag","0.284 ","2710","","0.388","","140","","LRM",""
"","Remington","Core-Lokt* Pointed Soft Point","7mm Remington Mag","0.284 ","3110","","0.346","","150","","LRM",""
"","Remington","Core-Lokt* Ultra Bonded*","7mm Remington Mag","0.284 ","2950","","0.415","","160","","LRM",""
"","Remington","Core-Lokt* Pointed Soft Point","7mm Remington Mag","0.284 ","2860","","0.427","","175","","LRM",""
"","Remington","Core-Lokt* Pointed Soft Point","7mm MaUser (7x57)","0.285 ","2660","","0.39","","140","","LR ",""
"","Remington","Core-Lokt* Pointed Soft Point","7x64 Brenneke","0.285 ","2950","","0.39","","140","","LR ",""
"","Remington","Core-Lokt* Pointed Soft Point","7x64 Brenneke","0.285 ","2600","","0.427","","175","","LR ",""
"","Remington","Core-Lokt* Pointed Soft Point","7mm Remington SA Ultra Mag*","0.284 ","3110","","0.346","","150","","LRM",""
"","Remington","Core-Lokt* Ultra Bonded*","7mm Remington SA Ultra Mag*","0.284 ","2960","","0.414","","160","","LRM",""
"","Remington","Core-Lokt* Ultra Bonded*","7mm Rem Ultra Mag*","0.284 ","3425","","0.409","","140","","LRM",""
"","Remington","Core-Lokt* Ultra Bonded*","7mm Rem Ultra Mag*","0.284 ","2950","","0.414","","160","","LRM",""
"","Remington","Core-Lokt* Pointed Soft Point","7mm Rem Ultra Mag*","0.284 ","3000","","0.409","","140","","LRM",""
"","Remington","Core-Lokt* Pointed Soft Point","30 Remington AR","0.341 ","2800","","0.267","","125","","LR",""
"","Remington","Core-Lokt* Pointed Soft Point","30 Remington AR","0.341 ","2575","","0.314","","150","","LR",""
"","Remington","Core-Lokt* Pointed Soft Point","30-30 Win","0.308","2175","","0.215","","125","","LR",""
"","Remington","Core-Lokt* Soft Point","30-30 Win","0.308","2390","","0.193","","150","","LR",""
"","Remington","Core-Lokt* Soft Point","30-30 Win","0.308","2200","","0.254","","170","","LR",""
"","Remington","Core-Lokt* Hollow Point","30-30 Win","0.308","2200","","0.254","","170","","LR",""
"","Remington","Core-Lokt* Pointed Soft Point","30-40 Krag","0.308","2430","","0.383","","180","","LR",""
"","Remington","Core-Lokt* Pointed Soft Point","30-06 Sprg","0.308","2660","","0.267","","125","","LR",""
"","Remington","Core-Lokt* Pointed Soft Point","30-06 Sprg","0.308","2910","","0.314","","150","","LR",""
"","Remington","Core-Lokt* Ultra Bonded*","30-06 Sprg","0.308","2910","","0.331","","150","","LR",""
"","Remington","Core-Lokt* Pointed Soft Point","30-06 Sprg","0.308","2800","","0.339","","165","","LR",""
"","Remington","Core-Lokt* Ultra Bonded*","30-06 Sprg","0.308","2700","","0.402","","180","","LR",""
"","Remington","Core-Lokt* Soft Point","30-06 Sprg","0.308","2700","","0.248","","180","","LR",""
"","Remington","Core-Lokt* Pointed Soft Point","30-06 Sprg","0.308","2700","","0.383","","180","","LR",""
"","Remington","Core-Lokt* Pointed Soft Point","30-06 Sprg","0.308","2410","","0.294","","220","","LR",""
"","Remington","Core-Lokt* Pointed Soft Point","300 Savage","0.308","2630","","0.314","","150","","LR",""
"","Remington","Core-Lokt* Pointed Soft Point","300 Win Mag","0.308 ","3290","","0.294","","150","","LRM",""
"","Remington","Core-Lokt* Pointed Soft Point","300 WSM","0.308 ","3320","","0.294","","150","","LRM",""
"","Remington","Core-Lokt* Pointed Soft Point","308 Win","0.308 ","2660","","0.267","","125","","LR",""
"","Remington","Core-Lokt* Pointed Soft Point","300 Weatherby Mag","0.308","3120","","0.383","","180","","LRM",""
"","Remington","Core-Lokt* Soft Point","303 British","0.311","2460","","0.247","","180","","LR",""
"","Remington","Core-Lokt* Pointed Soft Point","300 Remington SA Ultra Mag*","0.308","3075","","0.339","","165","","LRM",""
"","Remington","Core-Lokt* Ultra Bonded*","300 Remington SA Ultra Mag*","0.308","2960","","0.403","","180","","LRM",""
"","Remington","Core-Lokt* Ultra Bonded*","300 Remington Ultra Mag*","0.308","3250","","0.382","","180","","LRM",""
"","Remington","Core-Lokt* Ultra Bonded*","300 Remington Ultra Mag*","0.308","2980","","0.395","","180","","LRM",""
"","Remington","Core-Lokt* Soft Point","32 Win Special","0.321","2250","","0.239","","170","","LR",""
"","Remington","Core-Lokt* Soft Point","8mm MaUser","0.324","2360","","0.205","","170","","LR",""
"","Remington","Core-Lokt* Pointed Soft Point","338 Win Mag","0.338","2780","","0.435","","225","","LRM",""
"","Remington","Core-Lokt* Pointed Soft Point","338 Remington Ulta Mag*","0.338","2860","","0.431","","250","","LRM",""
"","Remington","Core-Lokt* Pointed Soft Point","35 Remington","0.357","2300","","0.184","","150","","LR",""
"","Remington","Core-Lokt* Soft Point","35 Remington","0.357","2080","","0.192","","200","","LR",""
"","Remington","Core-Lokt* Pointed Soft Point","35 Whelen","0.358","2675","","0.294","","200","","LR",""
"","Remington","Core-Lokt* Ultra Bonded*","450 Bushmaster","0.452","2180","","0.144","","260","","LR",""
"","","","","","","","","","","","",""
"","Norma","Hornady V-Max 20 gr",".17 Rem","0.172","","1280","0.185","","20","","SR",""
"","Norma","Hornady V-Max 29 gr",".204 Ruger","0.204","","1160","0.21","","40","","SR",""
"","Norma","V-MAX 40 gr",".222 Remington","0.224","","1050","0.2","","40","","SR",""
"","Norma","Norma Soft Point 50 gr",".222 Remington ","0.224","","975","0.185","","50","","SR",""
"","Norma","Norma FMJ 55 gr",".222 Remington","0.224","","850","0.209","","55","","SR",""
"","Norma","Norma FMJ 55 gr",".222 Remington","0.224","","940","0.209","","55","","SR",""
"","Norma","Norma Oryx 55 gr",".222 Remington","0.224","","930","0.185","","55","","SR",""
"","Norma","Norma Soft Point 62 gr",".222 Remington","0.224","","880","0.214","","62","","SR",""
"","Norma","V-MAX 40 gr",".223 Remington","0.224","","1140","0.2","","40","","SR",""
"","Norma","V-MAX 50 gr",".223 Remington","0.224","","1065","0.242","","50","","SR",""
"","Norma","Norma Soft Point 53 gr",".223 Remington","0.224","","980","0.237","","53","","SR",""
"","Norma","Norma Oryx 55 gr",".223 Remington","0.224","","950","0.185","","55","","SR",""
"","Norma","Norma FMJ 55 gr",".223 Remington","0.224","","990","0.209","","55","","SR",""
"","Norma","V-MAX 50 gr",".22-250 Remington","0.224","","1135","0.242","","50","","LR",""
"","Norma","Norma Soft Point 53 gr",".22-250 Remington","0.224","","1130","0.237","","53","","LR",""
"","Norma","Norma Oryx 55 gr",".22-250 Remington","0.224","","1100","0.185","","55","","LR",""
"","Norma","Norma FMJ 55 gr",".22-250 Remington","0.224","","1100","0.209","","55","","LR",""
"","Norma","Norma Soft Point 50 gr",".220 Swift","0.224","","1225","0.185","","50","","LR",""
"","Norma","Norma Oryx 55 gr",".220 Swift","0.224","","1150","0.185","","55","","LR",""
"","Norma","Norma Soft Point 71 gr","5,6x52R","0.228","","850","0.268","","71","","LR",""
"","Norma","Nosler BST 95 gr","6XC","0.27","","900","0.379","","95","","LR",""
"","Norma","Norma FMJ 95 gr","6XC","0.27","","900","0.351","","95","","LR",""
"","Norma","Norma Oryx 100 gr","6XC","0.27","","900","0.257","","100","","LR",""
"","Norma","V-MAX 58 gr",".243 Winchester","0.243 ","","1200","0.25","","58","","LR",""
"","Norma","V-MAX 75 gr",".243 Winchester","0.243 ","","1015","0.33","","75","","LR",""
"","Norma","Norma FMJ 95 gr",".243 Winchester","0.243 ","","900","0.351","","95","","LR",""
"","Norma","Norma Soft Point 100 gr",".243 Winchester","0.243 ","","910","0.257","","100","","LR",""
"","Norma","Norma Oryx 100 gr",".243 Winchester","0.243 ","","910","0.261","","100","","LR",""
"","Norma","Norma Alaska 156 gr","6,5 Japanese Arisaka","0.264 ","","630","0.326","","156","","LR",""
"","Norma","Norma Alaska 156 gr","6,5 Carcano ","0.268 ","","710","0.326","","156","","LR",""
"","Norma","Norma HP Rekrutt 100 gr","6,5x55 Swedish Mauser","0.256","","800","0.321","","100","","LR",""
"","Norma","Nosler BST 120 gr","6,5x55 Swedish Mauser","0.256","","860","0.431","","120","","LR",""
"","Norma","Norma FMJ 120 gr","6,5x55 Swedish Mauser","0.256","","820","0.428","","120","","LR",""
"","Norma","Nosler Partition 140 gr","6,5x55 Swedish Mauser","0.256","","820","0.467","","140","","LR",""
"","Norma","Norma Vulkan 156 gr","6,5x55 Swedish Mauser","0.256","","780","0.354","","156","","LR",""
"","Norma","Norma Oryx 156 gr","6,5x55 Swedish Mauser","0.256","","780","0.348","","156","","LR",""
"","Norma","Norma Alaska 156 gr","6,5x55 Swedish Mauser","0.256","","780","0.276","","156","","LR",""
"","Norma","Norma FMJ 120 gr","6,5x284 Norma ","0.264","","950","0.428","","120","","LR",""
"","Norma","Norma Oryx 156 gr","6,5x284 Norma ","0.264","","850","0.348","","156","","LR",""
"","Norma","V-MAX 110 gr",".270 Winchester","0.277 ","","980","0.37","","110","","LR",""
"","Norma","Norma Kalahari 120 gr",".270 Winchester","0.277 ","","1000","0.314","","120","","LR",""
"","Norma","Norma Soft Point 130 gr",".270 Winchester","0.277 ","","957","0.359","","130","","LR",""
"","Norma","Norma FMJ 130 gr",".270 Winchester","0.277 ","","880","0.365","","130","","LR",""
"","Norma","Norma Oryx 150 gr",".270 Winchester","0.277 ","","870","0.373","","150","","LR",""
"","Norma","Norma Vulkan 156 gr",".270 Winchester","0.277 ","","870","0.34","","156","","LR",""
"","Norma","Norma Kalahari 120 gr",".270 WSM","0.277 ","","1060","0.314","","120","","LRM",""
"","Norma","Norma FMJ 130 gr",".270 WSM","0.277 ","","960","0.365","","130","","LRM",""
"","Norma","Nosler BST 130 gr",".270 WSM","0.277 ","","1000","0.433","","130","","LRM",""
"","Norma","Norma Oryx 150 gr",".270 WSM","0.277 ","","950","0.373","","150","","LRM",""
"","Norma","Norma FMJ 150 gr","7x57 R Mauser","0.285 ","","805","0.441","","150","","LR",""
"","Norma","Norma Oryx 156 gr","7x57 R Mauser","0.285 ","","795","0.33","","156","","LR",""
"","Norma","Norma Oryx 156 gr","7x57 Mauser","0.285 ","","805","0.33","","156","","LR",""
"","Norma","Nosler BST 140 gr","7 mm-08 Remington","0.284","","860","0.485","","140","","LR",""
"","Norma","Norma ECOSTRIKE 140 gr","7x65 R","0.285 ","","860","0.443","","140","","LR",""
"","Norma","Norma FMJ 150 gr","7x65 R","0.285 ","","840","0.441","","150","","LR",""
"","Norma","Norma Oryx 156 gr","7x65 R","0.285 ","","830","0.33","","156","","LR",""
"","Norma","Norma Plastic Point 170 gr","7x65 R","0.285 ","","800","0.373","","170","","LR",""
"","Norma","Norma Vulkan 170 gr","7x65 R","0.285 ","","810","0.353","","170","","LR",""
"","Norma","Norma Oryx 170 gr","7x65 R","0.285 ","","810","0.324","","170","","LR",""
"","Norma","Norma Kalahari 125 gr",".280 Remington","0.284","","950","0.315","","125","","LR",""
"","Norma","Norma Oryx 156 gr",".280 Remington","0.284","","850","0.33","","156","","LR",""
"","Norma","Norma Plastic Point 170 gr",".280 Remington","0.284","","825","0.373","","170","","LR",""
"","Norma","Norma Vulkan 170 gr",".280 Remington","0.284","","790","0.353","","170","","LR",""
"","Norma","Norma Kalahari 125 gr","7x64","0.284 ","","945","0.315","","125","","LR",""
"","Norma","Norma ECOSTRIKE 140 gr","7x64","0.284 ","","910","0.443","","140","","LR",""
"","Norma","Norma Oryx 156 gr","7x64","0.284 ","","850","0.33","","156","","LR",""
"","Norma","Norma Plastic Point 170 gr","7x64","0.284 ","","830","0.378","","170","","LR",""
"","Norma","Norma Vulkan 170 gr","7x64","0.284 ","","830","0.353","","170","","LR",""
"","Norma","Norma Oryx 170 gr","7x64","0.284 ","","840","0.324","","170","","LR",""
"","Norma","Norma Oryx 156 gr","7 mm Blaser Magnum","0.284 ","","925","0.33","","156","","LRM",""
"","Norma","Norma Kalahari 125 gr","7 mm Remington Magnum","0.284 ","","1025","0.315","","125","","LRM",""
"","Norma","Norma ECOSTRIKE 140 gr","7 mm Remington Magnum","0.284 ","","950","0.443","","140","","LRM",""
"","Norma","Barnes TSX 140 gr","7 mm Remington Magnum","0.284 ","","950","0.394","","140","","LRM",""
"","Norma","Norma FMJ 150 gr","7 mm Remington Magnum","0.284 ","","913","0.443","","150","","LRM",""
"","Norma","Norma Oryx 156 gr","7 mm Remington Magnum","0.284 ","","900","0.33","","156","","LRM",""
"","Norma","Norma Vulkan 170 gr","7 mm Remington Magnum","0.284 ","","900","0.353","","170","","LRM",""
"","Norma","Norma Plastic Point 170 gr","7 mm Remington Magnum","0.284 ","","900","0.378","","170","","LRM",""
"","Norma","Norma Oryx 170 gr","7 mm Remington Magnum","0.284 ","","880","0.324","","170","","LRM",""
"","Norma","Norma Oryx 180 gr","7,5x55 Swiss","0.306 ","","820","0.354","","180","","LR",""
"","Norma","Norma ECOSTRIKE 150 gr",".308 Winchester","0.308","","860","0.42","","150","","LR",""
"","Norma","Norma Kalahari 150 gr",".308 Winchester","0.308","","870","0.304","","150","","LR",""
"","Norma","Norma FMJ 150 gr",".308 Winchester","0.308","","810","0.423","","150","","LR",""
"","Norma","Norma Oryx 165 gr",".308 Winchester ","0.308","","835","0.333","","165","","LR",""
"","Norma","Swift A-Frame 165 gr",".308 Winchester","0.308","","823","0.367","","165","","LR",""
"","Norma","Norma TIPSTRIKE 170 gr",".308 Winchester","0.308","","800","0.454","","170","","LR",""
"","Norma","Norma Plastic Point 180 gr",".308 Winchester ","0.308","","796","0.366","","180","","LR",""
"","Norma","Norma Alaska 180 gr",".308 Winchester","0.308","","796","0.257","","180","","LR",""
"","Norma","Norma Vulkan 180 gr",".308 Winchester ","0.308","","796","0.315","","180","","LR",""
"","Norma","Norma Oryx 180 gr",".308 Winchester ","0.308","","796","0.354","","180","","LR",""
"","Norma","Norma ECOSTRIKE 150 gr","30-06 Springfield ","0.308","","900","0.42","","150","","LR",""
"","Norma","Norma Kalahari","30-06 Springfield ","0.308","","910","0.304","","150","","LR",""
"","Norma","Norma FMJ 150 gr","30-06 Springfield ","0.308","","845","0.423","","150","","LR",""
"","Norma","Norma Oryx 165 gr","30-06 Springfield ","0.308","","900","0.333","","165","","LR",""
"","Norma","Norma TIPSTRIKE 170 gr","30-06 Springfield ","0.308","","850","0.454","","170","","LR",""
"","Norma","Swift A-Frame 180 gr","30-06 Springfield ","0.308","","823","0.4","","180","","LR",""
"","Norma","Norma Alaska 180 gr","30-06 Springfield ","0.308","","823","0.257","","180","","LR",""
"","Norma","Norma Plastic Point 180 gr","30-06 Springfield ","0.308","","823","0.366","","180","","LR",""
"","Norma","Norma Vulkan 180 gr","30-06 Springfield ","0.308","","823","0.315","","180","","LR",""
"","Norma","Norma Oryx 180 gr","30-06 Springfield ","0.308","","823","0.354","","180","","LR",""
"","Norma","Norma Oryx 200 gr","30-06 Springfield ","0.308","","800","0.338","","200","","LR",""
"","Norma","Norma ECOSTRIKE 150 gr",".300 Winchester Short Magnum","0.308","","990","0.42","","150","","LRM",""
"","Norma","Norma FMJ 150 gr",".300 Winchester Short Magnum","0.308","","900","0.423","","150","","LRM",""
"","Norma","Norma Kalahari 155 gr",".300 Winchester Short Magnum","0.308","","990","0.305","","155","","LRM",""
"","Norma","Norma Oryx 165 gr",".300 Winchester Short Magnum","0.308","","970","0.333","","165","","LRM",""
"","Norma","Norma Oryx 180 gr",".300 Winchester Short Magnum","0.308","","900","0.354","","180","","LRM",""
"","Norma","Norma Oryx 180 gr",".308 Norma Magnum","0.308","","900","0.354","","180","","LRM",""
"","Norma","Norma Oryx 200 gr ",".300 Blaser Magnum","0.308","","860","0.338","","200","","LRM",""
"","Norma","Norma ECOSTRIKE 150 gr",".300 Winchester Short Magnum","0.308","","1000","0.42","","150","","LRM",""
"","Norma","Barnes TSX 150 gr",".300 Winchester Short Magnum","0.308","","980","0.369","","150","","LRM",""
"","Norma","Norma FMJ 150 gr",".300 Winchester Short Magnum","0.308","","935","0.423","","150","","LRM",""
"","Norma","Norma Kalahari 155 gr",".300 Winchester Short Magnum","0.308","","1000","0.305","","155","","LRM",""
"","Norma","Norma TIPSTRIKE 170 gr",".300 Winchester Short Magnum","0.308","","960","0.454","","170","","LRM",""
"","Norma","Swift A-Frame 180 gr",".300 Winchester Short Magnum","0.308","","890","0.4","","180","","LRM",""
"","Norma","Norma Plastic Point 180 gr",".300 Winchester Short Magnum","0.308","","920","0.366","","180","","LRM",""
"","Norma","Norma Oryx 180 gr",".300 Winchester Short Magnum","0.308","","890","0.364","","180","","LRM",""
"","Norma","Norma Oryx 200 gr",".300 Winchester Short Magnum","0.308","","850","0.338","","200","","LRM",""
"","Norma","Norma Soft Point 174 gr","7,7 Japanese ","0.311","","760","0.262","","174","","LR",""
"","Norma","Soft Point 174 gr","7,65 Argentine ","0.313","","760","0.262","","174","","LR",""
"","Norma","Norma FMJ 123 gr ","8x57 JRS ","0.323","","780","0.191","","123","","LR",""
"","Norma","Norma ECOSTRIKE 160 gr ","8x57 JRS ","0.323","","820","0.43","","160","","LR",""
"","Norma","Norma Oryx 196 gr ","8x57 JRS ","0.323","","730","0.331","","196","","LR",""
"","Norma","Norma Alaska 196 gr ","8x57 JRS ","0.323","","730","0.345","","196","","LR",""
"","Norma","Norma Vulkan 196 gr ","8x57 JRS ","0.323","","730","0.345","","196","","LR",""
"","Norma","Norma FMJ 123 gr ","8x57 JS ","0.323","","860","0.191","","123","","LR",""
"","Norma","Norma ECOSTRIKE 160 gr ","8x57 JS ","0.323","","850","0.43","","160","","LR",""
"","Norma","Norma Alaska 196 gr ","8x57 JS ","0.323","","770","0.305","","196","","LR",""
"","Norma","Norma Oryx 196 gr ","8x57 JS ","0.323","","770","0.331","","196","","LR",""
"","Norma","Norma Vulkan 196 gr ","8x57 JS ","0.323","","770","0.347","","196","","LR",""
"","Norma","Swift A-Frame 200 gr","8x68S","0.323","","900","0.357","","200","","LR",""
"","Norma","Norma FMJ 225 gr ",".338 Winchester Magnum","0.338","","810","0.499","","225","","LRM",""
"","Norma","Norma Oryx 230 gr",".338 Winchester Magnum","0.338","","840","0.37","","230","","LRM",""
"","Norma","Norma Oryx 250 gr ",".35 Whelen ","0.358","","740","0.34","","250","","LR",""
"","Norma","Norma FMJ 232 gr",".358 Norma Magnum ","0.359","","800","0.275","","232","","LRM",""
"","Norma","Norma Oryx 250 gr ",".358 Norma Magnum ","0.359","","840","0.34","","250","","LRM",""
"","Norma","Norma FMJ 232 gr","9,3x57 ","0.365","","675","0.275","","232","","LR",""
"","Norma","Norma Oryx 232 gr","9,3x57 ","0.365","","720","0.267","","232","","LR",""
"","Norma","Norma ECOSTRIKE 230 gr ","9,3x62","0.365","","805","0.42","","230","","LR",""
"","Norma","Norma Oryx 232 gr ","9,3x62 ","0.365","","800","0.267","","232","","LR",""
"","Norma","Norma Vulkan 232 gr","9,3x62 ","0.365","","800","0.278","","232","","LR",""
"","Norma","Norma FMJ 232 gr","9,3x62","0.365","","765","0.275","","232","","LR",""
"","Norma","Norma Solid 275 gr","9,3x62","0.365","","745","0.236","","275","","LR",""
"","Norma","Norma Alaska 285 gr ","9,3x62 ","0.365","","720","0.365","","285","","LR",""
"","Norma","Norma Plastic Point 285 gr","9,3x62","0.365","","720","0.365","","285","","LR",""
"","Norma","Norma Oryx 285 gr","9,3x62","0.365","","720","0.33","","285","","LR",""
"","Norma","Swift A-Frame 286 gr","9,3x62","0.365","","720","0.428","","286","","LR",""
"","Norma","Norma Oryx 325 gr ","9,3x62 ","0.365","","670","0.383","","325","","LR",""
"","Norma","Norma Vulkan 232 gr ","9,3x74 R ","0.365","","780","0.278","","232","","LR",""
"","Norma","Norma Oryx 285 gr","9,3x74 R ","0.365","","710","0.356","","285","","LR",""
"","Norma","Norma Plastic 285 gr","9,3x74 R ","0.365","","720","0.365","","286","","LR",""
"","Norma","Norma Alaska 285 gr ","9,3x74 R ","0.365","","710","0.365","","285","","LR",""
"","Norma","Norma ECOSTRIKE 230 gr ","9,3x74 R ","0.365","","780","0.42","","230","","LR",""
"","Norma","Barnes TSX 270 gr ",".375 Holland & Holland Magnum ","0.375 ","","800","0.326","","270","","LRM",""
"","Norma","Norma Solid 300 gr",".375 Holland & Holland Magnum ","0.375 ","","777","0.229","","300","","LRM",""
"","Norma","Swift A-Frame 300 gr",".375 Holland & Holland Magnum ","0.375 ","","780","0.325","","300","","LRM",""
"","Norma","Norma Oryx 300 gr ",".375 Holland & Holland Magnum ","0.375 ","","780","0.32","","300","","LRM",""
"","Norma","Woodleigh Soft Nose 350 gr ",".375 Holland & Holland Magnum ","0.375 ","","700","0.321","","350","","LRM",""
"","Norma","Woodleigh FMJ 350 gr ",".375 Holland & Holland Magnum ","0.375 ","","700","0.307","","350","","LRM",""
"","Norma","Woodleigh Soft Nose 300 gr ",".375 Flanged Magnum Nitro Express","0.375 ","","730","0.276","","300","","LRM",""
"","Norma","Woodleigh FMJ 300 gr ",".375 Flanged Magnum Nitro Express","0.375 ","","730","0.276","","300","","LRM",""
"","Norma","Norma Oryx 300 gr ",".375 Blaser Magnum","0.375 ","","820","0.32","","300","","LRM",""
"","Norma","Woodleigh Soft Nose 410 gr",".500/416 Nitro Express ","0.476 ","","710","0.307","","410","","LR",""
"","Norma","Woodleigh FMJ 410 gr ",".500/416 Nitro Express ","0.476 ","","710","0.307","","410","","LR",""
"","Norma","Norma Solid 400 gr ",".416 Remington Magnum ","0.416 ","","730","0.247","","400","","LRM",""
"","Norma","Woodleigh Soft Nose 450 gr ",".416 Remington Magnum ","0.416 ","","655","0.338","","450","","LRM",""
"","Norma","Woodleigh FMJ 450 gr",".416 Remington Magnum ","0.416 ","","655","0.325","","450","","LRM",""
"","Norma","Swift A-Frame 400 gr ",".416 Rigby ","0.416 ","","716","0.367","","400","","LR",""
"","Norma","Norma Solid 400 gr ",".416 Rigby ","0.416 ","","725","0.247","","400","","LR",""
"","Norma","Woodleigh Soft Nose 450 gr ",".416 Rigby ","0.416 ","","655","0.338","","450","","LR",""
"","Norma","Norma FMJ 450 gr ",".416 Rigby ","0.416 ","","655","0.325","","450","","LR",""
"","Norma","Norma Solid 375 gr ",".416 Taylor ","0.416 ","","715","0.245","","375","","LR",""
"","Norma","Norma Solid 400 gr ",".404 Jeffery ","0.423 ","","710","0.247","","400","","LR",""
"","Norma","Woodleigh Soft Nose 450 gr ",".404 Jeffery ","0.423 ","","655","0.365","","450","","LR",""
"","Norma","Woodleigh FMJ 450 gr",".404 Jeffery ","0.423 ","","655","0.36","","450","","LR",""
"","Norma","Norma Solid 500 gr",".458 Winchester Magnum","0.458 ","","640","0.269","","500","","LRM",""
"","Norma","Swift A-Frame 500 gr ",".458 Winchester Magnum","0.458 ","","645","0.361","","500","","LRM",""
"","Norma","Norma Solid 500 gr",".458 Lott ","0.458 ","","700","0.269","","500","","LR",""
"","Norma","Woodleigh Soft Nose 550 gr",".458 Lott ","0.458 ","","640","0.33","","550","","LR",""
"","Norma","Woodleigh FMJ 550 gr ",".458 Lott ","0.458 ","","640","0.33","","550","","LR",""
"","Norma","Norma Solid 540 gr ",".500 Jeffery","0.51 ","","730","0.239","","540","","LR",""
"","Norma","Woodleigh Soft Nose 570 gr ",".500 Jeffery","0.51 ","","640","0.368","","570","","LR",""
"","Norma","Woodleigh FMJ 570 gr ",".500 Jeffery ","0.51 ","","670","0.35","","570","","LR",""
"","Norma","Norma Solid 500 gr",".450 Rigby Rimless ","0.51 ","","760","0.269","","500","","LR",""
"","Norma","Woodleigh Soft Nose 550 gr",".450 Rigby Rimless ","0.458 ","","640","0.34","","550","","LR",""
"","Norma","Woodleigh FMJ 550 gr ",".450 Rigby Rimless ","0.458 ","","640","0.326","","550","","LR",""
"","Norma","Woodleigh Soft Nose 500 gr ",".470 Nitro Express ","0.475 ","","640","0.374","","500","","LR",""
"","Norma","Woodleigh FMJ 500 gr ",".470 Nitro Express ","0.475 ","","640","0.37","","500","","LR",""
"","Norma","Woodleigh Soft Nose 570 gr ",".500 Nitro Express 3""","0.51 ","","640","0.368","","570","","LR",""
"","Norma","Woodleigh FMJ 570 gr ",".500 Nitro Express 3""","0.51 ","","640","0.35","","570","","LR",""
"","Norma","Norma Solid 540 gr ",".505 Magnum Gibbs","0.505 ","","700","0.242","","540","","LR",""
"","Norma","Woodleigh PPSN 600 gr",".505 Magnum Gibbs","0.505 ","","640","0.36","","600","","LR",""
"","Norma","Woodleigh FMJ 600 gr ",".505 Magnum Gibbs","0.505 ","","640","0.36","","600","","LR",""
